digraph git_branches {
    rankdir=BT
    fontname="Noto-Mono"
    edge    [fontname="Noto-Mono"]
    node    [fontname="Noto-Mono", shape="ellipse"]
    ranksep=0.2

    d148ec3 -> "19215ae" -> c3cf316 -> "4ba458a"
    "19215ae" -> b9293f9 -> "4ba458a"

    dev, master [shape="box"]

    subgraph cluster_master {rank=same;
        style="invis"
         "4ba458a", master
    }
    subgraph cluster_dev {rank=same;
        style="invis"
        dev, c3cf316
    }
}
