digraph git_branches {
    rankdir=BT
    fontname="Noto-Mono"
    edge    [fontname="Noto-Mono"]
    node    [fontname="Noto-Mono", shape="ellipse"]
    ranksep=0.2

    d148ec3 -> "19215ae" -> c3cf316 -> "4ba458a"
    "19215ae" -> b9293f9 -> "4ba458a" -> "83a744c"


    "83a744c" -> "0dec6ac" -> "168170e" -> "a51bdb8" -> "660f6ca" -> "3c3c801" -> "d43453a" -> "80f6599" -> "52e6a8d" -> "e1baa10" -> "e9c6032" -> "a45b72b" -> "b9afbd8" -> "30480c2" -> "8ba0665" -> "ced4053" -> "1a4078a" -> "7aae844" -> "2a12cdb" -> "a3bb899" -> "8b5eac4" -> "32a7c02" -> "b4cf74f" -> "60dd18c"


    {"3c3c801", "168170e"} -> "12318e5"
    {"52e6a8d", "12318e5"} -> "efcedf3"
    {"efcedf3", "a45b72b"} -> "62b5783"
    {"62b5783", "4ba458a"} -> "47ea3f8"

    dev, master, generer_fichiers [shape="box"]

    subgraph cluster_master {rank=same;
        style="invis"
         "47ea3f8", master
    }
    subgraph cluster_dev {rank=same;
        style="invis"
        dev, "62b5783"
    }
    subgraph cluster_gen {rank=same;
        style="invis"
        generer_fichiers, "60dd18c"
    }
}





