digraph git_branches {
    rankdir=BT
    fontname="Noto-Mono"
    edge    [fontname="Noto-Mono"]
    node    [fontname="Noto-Mono", shape="ellipse"]
    ranksep=0.2

    d148ec3 -> "19215ae"

    dev, master [shape="box"]

    {rank=same;
        "19215ae", dev, master
    }


}
