digraph test123 {
    rankdir=BT
    fontname="Noto-Mono"
    edge    [fontname="Noto-Mono"]
    node    [label="", fontname="Noto-Mono", shape="circle"]
    ranksep=0.2
    {
    rank=source ;init    [label="Commit initial", shape="ellipse"]
    }

    {rank=same;
    interf  [label=""]
    model   [label=""]
    data
    }


    init -> dev0
    dev0 -> interf
    dev0 -> model
    dev0 -> data


    subgraph cluster_data {
    margin=10
    label="branche data"
    node [style="filled", fillcolor="azure"]

    data -> data1 -> data2 -> data3
    data -> data3
    /* data3 -> data4 -> data5 -> data6 -> data7 -> data8 */
    /* data3 -> data8 */
    }


    subgraph cluster_model {
    margin=10
    label="branche modèle"
    node [style="filled", fillcolor="lightyellow"]
    model -> model1 -> model2 -> model3
    model -> model3
    model3 -> model4 -> model5 -> model6
    model3 -> model6
    node [style="filled", fillcolor="yellow"]
    model6 -> model7 -> model8
    }


    subgraph cluster_interf {
    margin=10
    label="branche interface"
    node [style="filled", fillcolor="bisque2"]
    interf -> interf1 -> interf2 -> interf3
    interf -> interf3
    interf3 -> interf4 -> interf5 -> interf6
    interf3 -> interf6
    interf6 -> interf7 -> interf8
    interf6 -> interf8
    }


    subgraph cluster_dev {
    margin=10
    label="branche dev"
    node [style="filled", fillcolor="lightcyan"]
    edge [color=blue, penwidth=2]
    dev1 -> dev2 -> dev3 -> dev4
    node [label="*"]
    dev3 -> dev31 -> dev32 -> dev4

    }

    data3 -> dev1 [label="fusion des\ndonnées matures\ndans dev"]
    model6 -> dev2 [label="fusion du\nmodèle utilisable\ndans dev"]
    /* model8 -> dev3 */
    /* data8 -> dev5 */
    interf8 -> dev3 [label="interface ok\npour tests"]


    subgraph cluster_data2 {
    margin=10
    label="b: data"
    node [style="filled", fillcolor="azure"]
    data4
    }
    subgraph cluster_ui {
    margin=10
    label="b: interf"
    node [style="filled", fillcolor="bisque2"]
    interf9
    }
    subgraph cluster_mod {
    margin=10
    label="b: model"
    node [style="filled", fillcolor="lightyellow"]
    model9
    }
    dev4 -> {interf9, model9, data4} [color="crimson"]


    subgraph cluster_master {
    margin=10
    label="b: master"
    node [style="filled", fillcolor="crimson"]
    master1
    }

    subgraph cluster_tests {
    margin=10
    label="tests et\nrelease"
    node [color="orange"]
    t1 -> t2 -> t3
    }

    dev4 -> t1
    t3 -> master1

    /* subgraph cluster_tests0 { */
    /* margin=10 */
    /* label="branches de tests" */
    /* node [style="filled", fillcolor="salmon"] */
    /* edge [color=crimson, penwidth=2, */
    /*     label="version stable\ndans master"] */
    /* dev2 ->  tests0 ->  tests1 ->  tests2 -> master1 */
    /* } */

    /* subgraph cluster_tests1 { */
    /* margin=10 */
    /* label="branches de tests" */
    /* node [style="filled", fillcolor="salmon"] */
    /* edge [color=crimson, penwidth=2, label="version stable\ndans master"] */
    /* dev3 -> tests3 -> tests4 -> master2 */
    /* } */
}
